…
You want to read in a single data file which has been compressed.  

### Solution

    https://arrow.apache.org/cookbook/r/reading-and-writing-data---single-files.html#cb27-1# Create a temporary directory
    https://arrow.apache.org/cookbook/r/reading-and-writing-data---single-files.html#cb27-2td <- tempfile()
    https://arrow.apache.org/cookbook/r/reading-and-writing-data---single-files.html#cb27-3dir.create(td)
    https://arrow.apache.org/cookbook/r/reading-and-writing-data---single-files.html#cb27-4
    https://arrow.apache.org/cookbook/r/reading-and-writing-data---single-files.html#cb27-5# Write data which is to be read back in
    https://arrow.apache.org/cookbook/r/reading-and-writing-data---single-files.html#cb27-6write_parquet(iris, file.path(td, "iris.parquet"), compression = "gzip")
    https://arrow.apache.org/cookbook/r/reading-and-writing-data---single-files.html#cb27-7
    https://arrow.apache.org/cookbook/r/reading-and-writing-data---single-files.html#cb27-8# Read in data
    https://arrow.apache.org/cookbook/r/reading-and-writing-data---single-files.html#cb27-9ds <- read_parquet(file.path(td, "iris.parquet"))
    https://arrow.apache.org/cookbook/r/reading-and-writing-data---single-files.html#cb27-10ds
    ## # A tibble: 150 × 5
    ##    Sepal.Length Sepal.Width Petal.Length Petal.Width Species
    ##           <dbl>       <dbl>        <dbl>       <dbl> <fct>  
    ##  1          5.1         3.5          1.4         0.2 setosa 
    ##  2          4.9         3            1.4         0.2 setosa 
    ##  3          4.7         3.2          1.3         0.2 setosa 
    ##  4          4.6         3.1          1.5         0.2 setosa 
    ##  5          5           3.6          1.4         0.2 setosa 
    ##  6          5.4         3.9          1.7         0.4 setosa 
    ##  7          4.6         3.4          1.4         0.3 setosa 
    ##  8          5           3.4          1.5         0.2 setosa 
    ##  9          4.4         2.9          1.4         0.2 setosa 
    ## 10          4.9         3.1          1.5         0.1 setosa 
    ## # ℹ 140 more rows
…
Note that Arrow automatically detects the compression and you do not have to supply it in the call to the `read_*()` or the `open_dataset()` functions.

Although the CSV format does not support compression itself, Arrow supports reading in CSV data which has been compressed, if the file extension is `.gz`.  

    https://arrow.apache.org/cookbook/r/reading-and-writing-data---single-files.html#cb29-1# Create a temporary directory
    https://arrow.apache.org/cookbook/r/reading-and-writing-data---single-files.html#cb29-2td <- tempfile()
    https://arrow.apache.org/cookbook/r/reading-and-writing-data---single-files.html#cb29-3dir.create(td)
    https://arrow.apache.org/cookbook/r/reading-and-writing-data---single-files.html#cb29-4
    https://arrow.apache.org/cookbook/r/reading-and-writing-data---single-files.html#cb29-5# Write data which is to be read back in
    https://arrow.apache.org/cookbook/r/reading-and-writing-data---single-files.html#cb29-6write.csv(iris, gzfile(file.path(td, "iris.csv.gz")), row.names = FALSE, quote = FALSE)
    https://arrow.apache.org/cookbook/r/reading-and-writing-data---single-files.html#cb29-7
    https://arrow.apache.org/cookbook/r/reading-and-writing-data---single-files.html#cb29-8# Read in data
    https://arrow.apache.org/cookbook/r/reading-and-writing-data---single-files.html#cb29-9ds <- read_csv_arrow(file.path(td, "iris.csv.gz"))
    https://arrow.apache.org/cookbook/r/reading-and-writing-data---single-files.html#cb29-10ds
    ## # A tibble: 150 × 5
    ##    Sepal.Length Sepal.Width Petal.Length Petal.Width Species
    ##           <dbl>       <dbl>        <dbl>       <dbl> <chr>  
    ##  1          5.1         3.5          1.4         0.2 setosa 
    ##  2          4.9         3            1.4         0.2 setosa 
    ##  3          4.7         3.2          1.3         0.2 setosa 
    ##  4          4.6         3.1          1.5         0.2 setosa 
    ##  5          5           3.6          1.4         0.2 setosa 
    ##  6          5.4         3.9          1.7         0.4 setosa 
    ##  7          4.6         3.4          1.4         0.3 setosa 
    ##  8          5           3.4          1.5         0.2 setosa 
    ##  9          4.4         2.9          1.4         0.2 setosa 
    ## 10          4.9         3.1          1.5         0.1 setosa 
    ## # ℹ 140 more rows
