…
### Solution

    https://arrow.apache.org/cookbook/r/reading-and-writing-data---multiple-files.html#cb61-1# Create a temporary directory
    https://arrow.apache.org/cookbook/r/reading-and-writing-data---multiple-files.html#cb61-2td <- tempfile()
    https://arrow.apache.org/cookbook/r/reading-and-writing-data---multiple-files.html#cb61-3dir.create(td)
    https://arrow.apache.org/cookbook/r/reading-and-writing-data---multiple-files.html#cb61-4
    https://arrow.apache.org/cookbook/r/reading-and-writing-data---multiple-files.html#cb61-5# Write dataset to file
    https://arrow.apache.org/cookbook/r/reading-and-writing-data---multiple-files.html#cb61-6write_dataset(iris, path = td, compression = "gzip")
    https://arrow.apache.org/cookbook/r/reading-and-writing-data---multiple-files.html#cb61-7
    https://arrow.apache.org/cookbook/r/reading-and-writing-data---multiple-files.html#cb61-8# Read in data
    https://arrow.apache.org/cookbook/r/reading-and-writing-data---multiple-files.html#cb61-9ds <- open_dataset(td) %>%
    https://arrow.apache.org/cookbook/r/reading-and-writing-data---multiple-files.html#cb61-10  collect()
    https://arrow.apache.org/cookbook/r/reading-and-writing-data---multiple-files.html#cb61-11
    https://arrow.apache.org/cookbook/r/reading-and-writing-data---multiple-files.html#cb61-12ds
    ## # A tibble: 150 × 5
    ##    Sepal.Length Sepal.Width Petal.Length Petal.Width Species
    ##           <dbl>       <dbl>        <dbl>       <dbl> <fct>  
    ##  1          5.1         3.5          1.4         0.2 setosa 
    ##  2          4.9         3            1.4         0.2 setosa 
    ##  3          4.7         3.2          1.3         0.2 setosa 
    ##  4          4.6         3.1          1.5         0.2 setosa 
    ##  5          5           3.6          1.4         0.2 setosa 
    ##  6          5.4         3.9          1.7         0.4 setosa 
    ##  7          4.6         3.4          1.4         0.3 setosa 
    ##  8          5           3.4          1.5         0.2 setosa 
    ##  9          4.4         2.9          1.4         0.2 setosa 
    ## 10          4.9         3.1          1.5         0.1 setosa 
    ## # ℹ 140 more rows
…
