…
One of the aims of the Arrow project is to reduce duplication between different data frame implementations. The underlying implementation of a data frame is a conceptually different thing to the code- or the application programming interface (API)-that you write to work with it.

You may have seen this before in packages like dbplyr which allow you to use the dplyr API to interact with SQL databases.

The Arrow R package has been written so that the underlying Arrow Table-like objects can be manipulated using the dplyr API, which allows you to use dplyr verbs.

For example, here’s a short pipeline of data manipulation which uses dplyr exclusively:  

    https://arrow.apache.org/cookbook/r/manipulating-data---tables.html#cb103-1library(dplyr)
    https://arrow.apache.org/cookbook/r/manipulating-data---tables.html#cb103-2starwars %>%
    https://arrow.apache.org/cookbook/r/manipulating-data---tables.html#cb103-3  filter(species == "Human") %>%
    https://arrow.apache.org/cookbook/r/manipulating-data---tables.html#cb103-4  mutate(height_ft = height/30.48) %>%
    https://arrow.apache.org/cookbook/r/manipulating-data---tables.html#cb103-5  select(name, height_ft)
    ## # A tibble: 35 × 2
    ##    name               height_ft
    ##    <chr>                  <dbl>
    ##  1 Luke Skywalker          5.64
    ##  2 Darth Vader             6.63
    ##  3 Leia Organa             4.92
    ##  4 Owen Lars               5.84
    ##  5 Beru Whitesun lars      5.41
    ##  6 Biggs Darklighter       6.00
    ##  7 Obi-Wan Kenobi          5.97
    ##  8 Anakin Skywalker        6.17
    ##  9 Wilhuff Tarkin          5.91
    ## 10 Han Solo                5.91
    ## # ℹ 25 more rows
And the same results as using Arrow with dplyr syntax:  

    https://arrow.apache.org/cookbook/r/manipulating-data---tables.html#cb105-1arrow_table(starwars) %>%
    https://arrow.apache.org/cookbook/r/manipulating-data---tables.html#cb105-2  filter(species == "Human") %>%
    https://arrow.apache.org/cookbook/r/manipulating-data---tables.html#cb105-3  mutate(height_ft = height/30.48) %>%
    https://arrow.apache.org/cookbook/r/manipulating-data---tables.html#cb105-4  select(name, height_ft) %>%
    https://arrow.apache.org/cookbook/r/manipulating-data---tables.html#cb105-5  collect()
    ## # A tibble: 35 × 2
    ##    name               height_ft
    ##    <chr>                  <dbl>
    ##  1 Luke Skywalker          5.64
    ##  2 Darth Vader             6.63
    ##  3 Leia Organa             4.92
    ##  4 Owen Lars               5.84
    ##  5 Beru Whitesun lars      5.41
    ##  6 Biggs Darklighter       6.00
    ##  7 Obi-Wan Kenobi          5.97
    ##  8 Anakin Skywalker        6.17
    ##  9 Wilhuff Tarkin          5.91
    ## 10 Han Solo                5.91
    ## # ℹ 25 more rows
…
* [lubridate](https://lubridate.tidyverse.org/)
* [stringr](https://stringr.tidyverse.org/)
* [dplyr](https://dplyr.tidyverse.org/)

If you try to call a function which does not have arrow mapping, the data will be pulled back into R, and you will see a warning message.  

    https://arrow.apache.org/cookbook/r/manipulating-data---tables.html#cb111-1library(stringr)
    https://arrow.apache.org/cookbook/r/manipulating-data---tables.html#cb111-2
    https://arrow.apache.org/cookbook/r/manipulating-data---tables.html#cb111-3arrow_table(starwars) %>%
    https://arrow.apache.org/cookbook/r/manipulating-data---tables.html#cb111-4  mutate(name_split = str_split_fixed(name, " ", 2)) %>%
    https://arrow.apache.org/cookbook/r/manipulating-data---tables.html#cb111-5  collect()
    ## Warning: Expression str_split_fixed(name, " ", 2) not supported in Arrow;
    ## pulling data into R
    ## # A tibble: 87 × 15
    ##    name     height  mass hair_color skin_color eye_color birth_year sex   gender
    ##    <chr>     <int> <dbl> <chr>      <chr>      <chr>          <dbl> <chr> <chr> 
    ##  1 Luke Sk…    172    77 blond      fair       blue            19   male  mascu…
    ##  2 C-3PO       167    75 <NA>       gold       yellow         112   none  mascu…
    ##  3 R2-D2        96    32 <NA>       white, bl… red             33   none  mascu…
    ##  4 Darth V…    202   136 none       white      yellow          41.9 male  mascu…
    ##  5 Leia Or…    150    49 brown      light      brown           19   fema… femin…
    ##  6 Owen La…    178   120 brown, gr… light      blue            52   male  mascu…
    ##  7 Beru Wh…    165    75 brown      light      blue            47   fema… femin…
    ##  8 R5-D4        97    32 <NA>       white, red red             NA   none  mascu…
    ##  9 Biggs D…    183    84 black      light      brown           24   male  mascu…
    ## 10 Obi-Wan…    182    77 auburn, w… fair       blue-gray       57   male  mascu…
    ## # ℹ 77 more rows
    ## # ℹ 6 more variables: homeworld <chr>, species <chr>, films <list<character>>,
    ## #   vehicles <list<character>>, starships <list<character>>,
    ## #   name_split <chr[,2]>
## Use Arrow functions in dplyr verbs in Arrow

You want to use a function which is implemented in Arrow’s C++ library but either:

* it doesn’t have a mapping to a base R or tidyverse equivalent, or
* it has a mapping but nevertheless you want to call the C++ function directly

### Solution

    https://arrow.apache.org/cookbook/r/manipulating-data---tables.html#cb114-1arrow_table(starwars) %>%
    https://arrow.apache.org/cookbook/r/manipulating-data---tables.html#cb114-2  select(name) %>%
    https://arrow.apache.org/cookbook/r/manipulating-data---tables.html#cb114-3  mutate(padded_name = arrow_ascii_lpad(name, options = list(width = 10, padding = "*"))) %>%
    https://arrow.apache.org/cookbook/r/manipulating-data---tables.html#cb114-4  collect()
    ## # A tibble: 87 × 2
    ##    name               padded_name       
    ##    <chr>              <chr>             
    ##  1 Luke Skywalker     Luke Skywalker    
    ##  2 C-3PO              *****C-3PO        
    ##  3 R2-D2              *****R2-D2        
    ##  4 Darth Vader        Darth Vader       
    ##  5 Leia Organa        Leia Organa       
    ##  6 Owen Lars          *Owen Lars        
    ##  7 Beru Whitesun lars Beru Whitesun lars
    ##  8 R5-D4              *****R5-D4        
    ##  9 Biggs Darklighter  Biggs Darklighter 
    ## 10 Obi-Wan Kenobi     Obi-Wan Kenobi    
    ## # ℹ 77 more rows
…
### Solution

    https://arrow.apache.org/cookbook/r/manipulating-data---tables.html#cb122-1arrow_table(starwars) %>%
    https://arrow.apache.org/cookbook/r/manipulating-data---tables.html#cb122-2  select(1:4) %>%
    https://arrow.apache.org/cookbook/r/manipulating-data---tables.html#cb122-3  filter(!is.na(hair_color)) %>%
    https://arrow.apache.org/cookbook/r/manipulating-data---tables.html#cb122-4  left_join(
    https://arrow.apache.org/cookbook/r/manipulating-data---tables.html#cb122-5    arrow_table(starwars) %>%
    https://arrow.apache.org/cookbook/r/manipulating-data---tables.html#cb122-6      group_by(hair_color) %>%
    https://arrow.apache.org/cookbook/r/manipulating-data---tables.html#cb122-7      summarize(mean_height = mean(height, na.rm = TRUE))
    https://arrow.apache.org/cookbook/r/manipulating-data---tables.html#cb122-8  ) %>%
    https://arrow.apache.org/cookbook/r/manipulating-data---tables.html#cb122-9  filter(height < mean_height) %>%
    https://arrow.apache.org/cookbook/r/manipulating-data---tables.html#cb122-10  select(!mean_height) %>%
    https://arrow.apache.org/cookbook/r/manipulating-data---tables.html#cb122-11  collect()
    ## # A tibble: 29 × 4
    ##    name                  height  mass hair_color
    ##    <chr>                  <int> <dbl> <chr>     
    ##  1 Luke Skywalker           172    77 blond     
    ##  2 Leia Organa              150    49 brown     
    ##  3 Beru Whitesun lars       165    75 brown     
    ##  4 Wedge Antilles           170    77 brown     
    ##  5 Yoda                      66    17 white     
    ##  6 Lobot                    175    79 none      
    ##  7 Ackbar                   180    83 none      
    ##  8 Wicket Systri Warrick     88    20 brown     
    ##  9 Nien Nunb                160    68 none      
    ## 10 Finis Valorum            170    NA blond     
    ## # ℹ 19 more rows
Or using `to_duckdb()`  

    https://arrow.apache.org/cookbook/r/manipulating-data---tables.html#cb124-1arrow_table(starwars) %>%
    https://arrow.apache.org/cookbook/r/manipulating-data---tables.html#cb124-2  select(1:4) %>%
    https://arrow.apache.org/cookbook/r/manipulating-data---tables.html#cb124-3  filter(!is.na(hair_color)) %>%
    https://arrow.apache.org/cookbook/r/manipulating-data---tables.html#cb124-4  to_duckdb() %>%
    https://arrow.apache.org/cookbook/r/manipulating-data---tables.html#cb124-5  group_by(hair_color) %>%
    https://arrow.apache.org/cookbook/r/manipulating-data---tables.html#cb124-6  filter(height < mean(height, na.rm = TRUE)) %>%
    https://arrow.apache.org/cookbook/r/manipulating-data---tables.html#cb124-7  to_arrow() %>%
    https://arrow.apache.org/cookbook/r/manipulating-data---tables.html#cb124-8  collect()
    ## # A tibble: 29 × 4
    ##    name                  height  mass hair_color
    ##    <chr>                  <int> <dbl> <chr>     
    ##  1 Luke Skywalker           172    77 blond     
    ##  2 Finis Valorum            170    NA blond     
    ##  3 Yoda                      66    17 white     
    ##  4 Leia Organa              150    49 brown     
    ##  5 Beru Whitesun lars       165    75 brown     
    ##  6 Wedge Antilles           170    77 brown     
    ##  7 Wicket Systri Warrick     88    20 brown     
    ##  8 Cordé                    157    NA brown     
    ##  9 Dormé                    165    NA brown     
    ## 10 Padmé Amidala            165    45 brown     
    ## # ℹ 19 more rows
### Discusson

Arrow does not support window functions, and pulls the data into R. For large tables, this sacrifices performance.  

    https://arrow.apache.org/cookbook/r/manipulating-data---tables.html#cb126-1arrow_table(starwars) %>%
    https://arrow.apache.org/cookbook/r/manipulating-data---tables.html#cb126-2  select(1:4) %>%
    https://arrow.apache.org/cookbook/r/manipulating-data---tables.html#cb126-3  filter(!is.na(hair_color)) %>%
    https://arrow.apache.org/cookbook/r/manipulating-data---tables.html#cb126-4  group_by(hair_color) %>%
    https://arrow.apache.org/cookbook/r/manipulating-data---tables.html#cb126-5  filter(height < mean(height, na.rm = TRUE))
    ## Warning: Expression height < mean(height, na.rm = TRUE) not supported in Arrow;
    ## pulling data into R
    ## # A tibble: 29 × 4
    ## # Groups:   hair_color [5]
    ##    name                  height  mass hair_color
    ##    <chr>                  <int> <dbl> <chr>     
    ##  1 Luke Skywalker           172    77 blond     
    ##  2 Leia Organa              150    49 brown     
    ##  3 Beru Whitesun lars       165    75 brown     
    ##  4 Wedge Antilles           170    77 brown     
    ##  5 Yoda                      66    17 white     
    ##  6 Lobot                    175    79 none      
    ##  7 Ackbar                   180    83 none      
    ##  8 Wicket Systri Warrick     88    20 brown     
    ##  9 Nien Nunb                160    68 none      
    ## 10 Finis Valorum            170    NA blond     
    ## # ℹ 19 more rows
…
