…
    #> # A tibble: 10 × 3
    #>    name                    job                                      phone_number
    #>    <chr>                   <chr>                                    <chr>       
    #>  1 Deana Mraz DDS          Printmaker                               +25(2)69696…
    #>  2 Delina Kilback          Administrator, charities/voluntary orga… 04380296996 
    #>  3 Mandi Bailey PhD        Systems analyst                          09381790856 
    #>  4 Ms. Trista Jacobson DVM Pharmacist, hospital                     214-956-893…
    #>  5 King Bartoletti         Teacher, music                           1-312-788-3…
    #>  6 Dr. Ike Gerhold         Audiological scientist                   743.877.3448
    #>  7 Dr. Tatyanna Blanda DVM Manufacturing systems engineer           09691101846 
    #>  8 Antione Grant           Regulatory affairs officer               (406)994-27…
    #>  9 Michal Gutmann          Chartered management accountant          (576)667-99…
    #> 10 Ross Cartwright PhD     Video editor                             07913227887
    https://docs.ropensci.org/charlatan/reference/ch_generate.html("job", "phone_number", n = 30)
    #> # A tibble: 30 × 2
    #>    job                               phone_number        
    #>    <chr>                             <chr>               
    #>  1 Scientist, research (medical)     +63(0)0054265468    
    #>  2 Contracting civil engineer        +97(1)8445952277    
    #>  3 Geneticist, molecular             167-865-4109x84457  
    #>  4 Equities trader                   737.695.1498x1212   
    #>  5 Interior and spatial designer     +49(7)9909862225    
    #>  6 Geophysical data processor        1-884-863-2289x58137
    #>  7 Ophthalmologist                   060-919-7672x6069   
    #>  8 Engineer, agricultural            180-370-0811x1948   
    #>  9 Dealer                            1-838-787-0534      
    #> 10 Environmental health practitioner 884.224.4881        
    #> # ℹ 20 more rows
…
